; generated by ARM C/C++ Compiler, 5.03 [Build 76]
; commandline ArmCC [--thumb --list --debug -c --asm --interleave -o.\output\cpac.o --asm_dir=.\output\ --list_dir=.\output\ --depend=.\output\cpac.d --apcs=interwork -IC:\Keil\ARM\RV31\INC -IC:\Keil\ARM\CMSIS\Include -IC:\Keil\ARM\Inc\Philips --omf_browse=.\output\cpac.crf cpac.c]
                          THUMB

                          AREA ||.text||, CODE, READONLY, ALIGN=2

                  CpacGetAlertValue PROC
;;;62     *****************************************************************************/
;;;63     uint8 CpacGetAlertValue ()
000000  48ca              LDR      r0,|L1.812|
;;;64     {
;;;65     	// Check for a CPAC Reset Condition
;;;66     	if (aucSBBuffer [OLD_F45] & SB_CPAC_RESET_FLAG)
000002  7a00              LDRB     r0,[r0,#8]  ; aucSBBuffer
000004  0701              LSLS     r1,r0,#28
000006  d501              BPL      |L1.12|
;;;67     		return 'R'; 	
000008  2052              MOVS     r0,#0x52
;;;68     
;;;69     	// Check for a CPAC Loiter Alert
;;;70     	if (aucSBBuffer [OLD_F45] & SB_OLD_LOITER_FLAG)
;;;71     		return 'O'; 	
;;;72     
;;;73     	// Check for a CPAC Pause Alert
;;;74     	if (aucSBBuffer [OLD_F45] & SB_OLD_PAUSE_FLAG)
;;;75     		return 'Q';
;;;76     
;;;77     	// Check for a CPAC Door Prop Alert
;;;78     	if (aucSBBuffer [OLD_F45] & SB_OLD_DOOR_PROP_FLAG)
;;;79     		return 'P';
;;;80     
;;;81     	// Check for a CPAC Door Open and Locked Alert
;;;82     	if (aucSBBuffer [OLD_F45] & SB_OLD_DOOR_LOCK_FLAG)
;;;83     		return 'D';
;;;84     		 	
;;;85     	// It's none of those, so it must be a Wander Alert
;;;86     	return 'W';
;;;87     }
00000a  4770              BX       lr
                  |L1.12|
00000c  06c1              LSLS     r1,r0,#27             ;70
00000e  d501              BPL      |L1.20|
000010  204f              MOVS     r0,#0x4f              ;71
000012  4770              BX       lr
                  |L1.20|
000014  0681              LSLS     r1,r0,#26             ;74
000016  d501              BPL      |L1.28|
000018  2051              MOVS     r0,#0x51              ;75
00001a  4770              BX       lr
                  |L1.28|
00001c  0641              LSLS     r1,r0,#25             ;78
00001e  d501              BPL      |L1.36|
000020  2050              MOVS     r0,#0x50              ;79
000022  4770              BX       lr
                  |L1.36|
000024  0600              LSLS     r0,r0,#24             ;82
000026  d501              BPL      |L1.44|
000028  2044              MOVS     r0,#0x44              ;83
00002a  4770              BX       lr
                  |L1.44|
00002c  2057              MOVS     r0,#0x57              ;86
00002e  4770              BX       lr
;;;88     
                          ENDP

                  CpacReadTitle PROC
;;;501    *****************************************************************************/
;;;502    uint8 * CpacReadTitle (uint8 Receiver )
000030  4bbf              LDR      r3,|L1.816|
;;;503    {
;;;504    	uint32 i;
;;;505    
;;;506    	// Search for this receiver or end of record
;;;507    	for (i = 0;  i < CPAC_TITLE_NUM_RECORDS;  i++ )
000032  2100              MOVS     r1,#0
                  |L1.52|
;;;508    		{
;;;509    		if (CpacTitle [i].Receiver == Receiver)
000034  010a              LSLS     r2,r1,#4
000036  5c9a              LDRB     r2,[r3,r2]
000038  4282              CMP      r2,r0
00003a  d103              BNE      |L1.68|
;;;510    			{
;;;511    			// A matching receiver was found.  Return the corresponding title.
;;;512    			return ( (uint8 *)  &CpacTitle [i].Name);
00003c  0108              LSLS     r0,r1,#4
00003e  18c0              ADDS     r0,r0,r3
000040  1c40              ADDS     r0,r0,#1
;;;513    			}
;;;514    		if (CpacTitle [i].Receiver == 0)
;;;515    			{
;;;516    			return 0;
;;;517    			}
;;;518    		}
;;;519    	return 0;
;;;520    }
000042  4770              BX       lr
                  |L1.68|
000044  2a00              CMP      r2,#0                 ;514
000046  d002              BEQ      |L1.78|
000048  1c49              ADDS     r1,r1,#1              ;507
00004a  2930              CMP      r1,#0x30              ;507
00004c  d3f2              BCC      |L1.52|
                  |L1.78|
00004e  2000              MOVS     r0,#0                 ;519
000050  4770              BX       lr
;;;521    	
                          ENDP

                  CpacAddTitle PROC
;;;187    *****************************************************************************/
;;;188    uint8 CpacAddTitle (uint8 * buffer)
000052  b510              PUSH     {r4,lr}
;;;189    {
000054  0004              MOVS     r4,r0
;;;190    	uint8 *ptr;
;;;191    
;;;192    	// Search for the title
;;;193    	ptr = CpacReadTitle (ucReceiverNumberResponding);
000056  48b7              LDR      r0,|L1.820|
000058  7800              LDRB     r0,[r0,#0]  ; ucReceiverNumberResponding
00005a  f7fffffe          BL       CpacReadTitle
00005e  0001              MOVS     r1,r0
;;;194    	if (ptr)
000060  d004              BEQ      |L1.108|
;;;195    		{
;;;196    		// The receiver number was found in the Database
;;;197    		StringCat (buffer, ptr, CPAC_TITLE_SIZE);	
000062  220f              MOVS     r2,#0xf
000064  0020              MOVS     r0,r4
000066  f7fffffe          BL       StringCat
;;;198            return TRUE;
00006a  2001              MOVS     r0,#1
                  |L1.108|
;;;199    		}
;;;200    	else
;;;201    		{
;;;202    		// No Title found in Title Database for this receiver
;;;203            return FALSE;
;;;204    		}
;;;205    
;;;206    
;;;207    
;;;208    
;;;209    }
00006c  bc10              POP      {r4}
00006e  bc08              POP      {r3}
000070  4718              BX       r3
;;;210    
                          ENDP

                  CpacBackupPaging PROC
;;;112    *****************************************************************************/
;;;113    uint8 CpacBackupPaging (uint8 * buffer)
000072  b570              PUSH     {r4-r6,lr}
;;;114    {
000074  0004              MOVS     r4,r0
;;;115    			uint8  szDeviceNumber [8];
;;;116    	const 	uint8  LOITER[]      = " LOITER ";
000076  a2b0              ADR      r2,|L1.824|
000078  ca07              LDM      r2,{r0-r2}
00007a  b090              SUB      sp,sp,#0x40           ;114
;;;117    	const 	uint8  PATIENT[]     = "PATIENT ";
00007c  ab06              ADD      r3,sp,#0x18
00007e  c307              STM      r3!,{r0-r2}
000080  a2b0              ADR      r2,|L1.836|
000082  ca07              LDM      r2,{r0-r2}
;;;118    	const 	uint8  DOOR_OPEN[]   = "DOOR OPEN ";
000084  ab09              ADD      r3,sp,#0x24
000086  c307              STM      r3!,{r0-r2}
000088  a2b1              ADR      r2,|L1.848|
00008a  ca07              LDM      r2,{r0-r2}
;;;119    	const 	uint8  DOOR_LOCKED[] = "DOOR LOCKED ";
00008c  ad0c              ADD      r5,sp,#0x30
00008e  c507              STM      r5!,{r0-r2}
000090  a3b2              ADR      r3,|L1.860|
000092  cb0f              LDM      r3,{r0-r3}
;;;120    
;;;121    	// This is a CPAC Alarm
;;;122    	if (aucSBBuffer [OLD_F45] & (SB_OLD_PAUSE_FLAG | SB_CPAC_RESET_FLAG))
000094  ad02              ADD      r5,sp,#8
000096  c50f              STM      r5!,{r0-r3}
000098  4ea4              LDR      r6,|L1.812|
00009a  2128              MOVS     r1,#0x28
00009c  7a30              LDRB     r0,[r6,#8]  ; aucSBBuffer
00009e  4208              TST      r0,r1
0000a0  d004              BEQ      |L1.172|
;;;123    		// This is a CPAC Pause or Reset Alert -- no need for backup paging
;;;124    		return FALSE;
0000a2  2000              MOVS     r0,#0
                  |L1.164|
;;;125    
;;;126    	// Convert the Receiver Number to Ascii
;;;127    	UIntToAscii( szDeviceNumber, ucReceiverNumberResponding  );
;;;128    	szDeviceNumber[5] = ' ';
;;;129    
;;;130    	if (aucSBBuffer [OLD_F45] & SB_OLD_DOOR_PROP_FLAG)
;;;131    		{
;;;132    		// This is a CPAC Door Open Too Long Alert
;;;133    		memcpy( buffer, (uint8 *) DOOR_OPEN, 10 );
;;;134    		StringCat ( buffer, (uint8 *) &szDeviceNumber[2], 4 );
;;;135    		CpacAddTitle (buffer);
;;;136    		return TRUE;
;;;137    		}
;;;138    	if (aucSBBuffer [OLD_F45] & SB_OLD_DOOR_LOCK_FLAG)
;;;139    		{
;;;140    		// This is a CPAC Door Open and Locked Alert
;;;141    		memcpy( buffer, (uint8 *) DOOR_LOCKED, 12 );
;;;142    		StringCat ( buffer, (uint8 *) &szDeviceNumber[2], 4 );
;;;143    		CpacAddTitle (buffer);
;;;144    		return TRUE;
;;;145    		}
;;;146    
;;;147    	// This is either a Wander or a Loiter Alert
;;;148    	// Put the Patient number on the first line
;;;149    	memcpy ( buffer, (uint8 *) PATIENT, 8 );	
;;;150    	// Add in the Patient Number
;;;151    	StringCat( buffer, CpacRfidString, 6 );	
;;;152    
;;;153    	if (!CpacAddTitle (buffer))
;;;154    		{
;;;155    		// There was no title to add to the second line
;;;156    		if (aucSBBuffer [OLD_F45] & SB_OLD_LOITER_FLAG)
;;;157    			// This is a CPAC Loiter Alert
;;;158    			StringCat( buffer, (uint8 *) LOITER, 8 );
;;;159    		else
;;;160    			// This is a CPAC Wander Alert
;;;161    			StringCat( buffer, (uint8 *) WANDER, 8 );
;;;162    		// Add in the Receiver Number  
;;;163    		StringCat ( buffer, (uint8 *) &szDeviceNumber[2], 3 );
;;;164    		}
;;;165    	return TRUE;
;;;166    }
0000a4  b010              ADD      sp,sp,#0x40
                  |L1.166|
0000a6  bc70              POP      {r4-r6}
0000a8  bc08              POP      {r3}
0000aa  4718              BX       r3
                  |L1.172|
0000ac  48a1              LDR      r0,|L1.820|
0000ae  7801              LDRB     r1,[r0,#0]            ;127  ; ucReceiverNumberResponding
0000b0  4668              MOV      r0,sp                 ;127
0000b2  f7fffffe          BL       UIntToAscii
0000b6  2020              MOVS     r0,#0x20              ;128
0000b8  4669              MOV      r1,sp                 ;128
0000ba  7148              STRB     r0,[r1,#5]            ;128
0000bc  7a30              LDRB     r0,[r6,#8]            ;130  ; aucSBBuffer
0000be  466d              MOV      r5,sp                 ;115
0000c0  0641              LSLS     r1,r0,#25             ;130
0000c2  d502              BPL      |L1.202|
0000c4  220a              MOVS     r2,#0xa               ;133
0000c6  a90c              ADD      r1,sp,#0x30           ;133
0000c8  e003              B        |L1.210|
                  |L1.202|
0000ca  0600              LSLS     r0,r0,#24             ;138
0000cc  d50d              BPL      |L1.234|
0000ce  220c              MOVS     r2,#0xc               ;141
0000d0  a902              ADD      r1,sp,#8              ;141
                  |L1.210|
0000d2  0020              MOVS     r0,r4                 ;133
0000d4  f7fffffe          BL       __aeabi_memcpy
0000d8  2204              MOVS     r2,#4                 ;134
0000da  1ca9              ADDS     r1,r5,#2              ;134
0000dc  0020              MOVS     r0,r4                 ;134
0000de  f7fffffe          BL       StringCat
0000e2  0020              MOVS     r0,r4                 ;135
0000e4  f7fffffe          BL       CpacAddTitle
0000e8  e01e              B        |L1.296|
                  |L1.234|
0000ea  2208              MOVS     r2,#8                 ;149
0000ec  0020              MOVS     r0,r4                 ;149
0000ee  a909              ADD      r1,sp,#0x24           ;149
0000f0  f7fffffe          BL       __aeabi_memcpy
0000f4  499d              LDR      r1,|L1.876|
0000f6  2206              MOVS     r2,#6                 ;151
0000f8  0020              MOVS     r0,r4                 ;151
0000fa  f7fffffe          BL       StringCat
0000fe  0020              MOVS     r0,r4                 ;153
000100  f7fffffe          BL       CpacAddTitle
000104  2800              CMP      r0,#0                 ;153
000106  d10f              BNE      |L1.296|
000108  7a30              LDRB     r0,[r6,#8]            ;156  ; aucSBBuffer
00010a  06c0              LSLS     r0,r0,#27             ;156
00010c  d502              BPL      |L1.276|
00010e  2208              MOVS     r2,#8                 ;158
000110  a906              ADD      r1,sp,#0x18           ;158
000112  e001              B        |L1.280|
                  |L1.276|
000114  4996              LDR      r1,|L1.880|
000116  2208              MOVS     r2,#8                 ;161
                  |L1.280|
000118  0020              MOVS     r0,r4                 ;161
00011a  f7fffffe          BL       StringCat
00011e  2203              MOVS     r2,#3                 ;163
000120  1ca9              ADDS     r1,r5,#2              ;163
000122  0020              MOVS     r0,r4                 ;163
000124  f7fffffe          BL       StringCat
                  |L1.296|
000128  2001              MOVS     r0,#1                 ;165
00012a  e7bb              B        |L1.164|
;;;167    
                          ENDP

                  CpacSearchForEndOfQueue PROC
;;;253    *****************************************************************************/
;;;254    uint8 * CpacSearchForEndOfQueue (uint8 * queue)
00012c  2100              MOVS     r1,#0
;;;255    {
;;;256    	uint32 i;
;;;257    	
;;;258    	for ( i = 0;  i < CPAC_QUEUE_SIZE; )
00012e  22ff              MOVS     r2,#0xff
000130  32f5              ADDS     r2,r2,#0xf5
                  |L1.306|
;;;259    		{
;;;260    		// The first byte of a record is the Receiver Number, which must be non-zero
;;;261    		if (!queue [i])
000132  5c43              LDRB     r3,[r0,r1]
000134  2b00              CMP      r3,#0
000136  d006              BEQ      |L1.326|
;;;262    			{
;;;263    			// A zero value has been found - this is the end of the queue
;;;264    			return (uint8 *) &queue [i];
;;;265    			}
;;;266    		else
;;;267    			{
;;;268    			// The count is the second byte in the record
;;;269    			i += (queue [i+1]);
000138  1843              ADDS     r3,r0,r1
00013a  785b              LDRB     r3,[r3,#1]
00013c  1859              ADDS     r1,r3,r1
00013e  4291              CMP      r1,r2                 ;258
000140  d3f7              BCC      |L1.306|
;;;270    			}
;;;271    		}
;;;272    
;;;273    	// no end found 
;;;274    	return 0;
000142  2000              MOVS     r0,#0
;;;275    }
000144  4770              BX       lr
                  |L1.326|
000146  1840              ADDS     r0,r0,r1              ;264
000148  4770              BX       lr
;;;276    
                          ENDP

                  CpacAddMessageToQueue PROC
;;;227    *****************************************************************************/
;;;228    void CpacAddMessageToQueue (uint8 * buffer)
00014a  b510              PUSH     {r4,lr}
;;;229    {
00014c  0004              MOVS     r4,r0
;;;230    	uint8 * ptr;
;;;231    
;;;232    	ptr = CpacSearchForEndOfQueue (CpacOutQueue);
00014e  4889              LDR      r0,|L1.884|
000150  f7fffffe          BL       CpacSearchForEndOfQueue
;;;233    	if (ptr)
000154  2800              CMP      r0,#0
000156  d089              BEQ      |L1.108|
;;;234    		{
;;;235    		// Store the new message at the end of the queue
;;;236    		memcpy (ptr, buffer, buffer [1]);
000158  7862              LDRB     r2,[r4,#1]
00015a  0021              MOVS     r1,r4
00015c  f7fffffe          BL       __aeabi_memcpy
;;;237    		} 	
;;;238    }
000160  e784              B        |L1.108|
;;;239    
                          ENDP

                  CpacSearchForMessageInQueue PROC
;;;295    *****************************************************************************/
;;;296    uint8 * CpacSearchForMessageInQueue (uint8 * queue, uint8 ReceiverAddress)
000162  b470              PUSH     {r4-r6}
;;;297    {
;;;298    	uint32 i;
;;;299    	
;;;300    	CpacMessageSent = FALSE;
000164  4c84              LDR      r4,|L1.888|
000166  2200              MOVS     r2,#0
;;;301    
;;;302    	for ( i = 0;  i < CPAC_QUEUE_SIZE;  )
;;;303    		{
;;;304    		// The first byte of a record is the Receiver Number, which must be non-zero
;;;305    		if (queue [i] == ReceiverAddress)
;;;306    			{
;;;307    			// A matching receiver address has been found - return the pointer to this location
;;;308    			CpacMarkTheSpot = (uint8 *) &queue [i];
;;;309    			CpacMessageSent = TRUE;
000168  2501              MOVS     r5,#1
00016a  26ff              MOVS     r6,#0xff              ;302
00016c  36f5              ADDS     r6,r6,#0xf5           ;302
00016e  7062              STRB     r2,[r4,#1]            ;300
                  |L1.368|
000170  5c83              LDRB     r3,[r0,r2]            ;305
000172  428b              CMP      r3,r1                 ;305
000174  d00b              BEQ      |L1.398|
;;;310    			return (uint8 *) &queue [i];
;;;311    			}
;;;312    		else if(queue[i] == 0xFF)  // A broadcast message generated
000176  2bff              CMP      r3,#0xff
000178  d009              BEQ      |L1.398|
;;;313    		    {
;;;314    #if 0
;;;315     			SioSetMessage(UART_2, (uint8*)"CapcSearchForMessageInQueue Called with BCAST\n\r",
;;;316    							(uint16)sizeof("CapcSearchForMessageInQueue Called with BCAST\n\r")); 
;;;317    #endif
;;;318    			CpacMarkTheSpot = (uint8 *) &queue [i];
;;;319    			CpacMessageSent = TRUE;
;;;320    			return (uint8 *) &queue [i];	
;;;321    			}
;;;322    		else if (queue [i] == 0)
00017a  2b00              CMP      r3,#0
00017c  d004              BEQ      |L1.392|
;;;323    			{
;;;324    			// We have reached the end of the queue
;;;325    			return (uint8 *) 0;
;;;326    			}
;;;327    		else
;;;328    			{
;;;329    			// update to the next spot in the queue
;;;330    			i += (queue [i+1]);
00017e  1883              ADDS     r3,r0,r2
000180  785b              LDRB     r3,[r3,#1]
000182  189a              ADDS     r2,r3,r2
000184  42b2              CMP      r2,r6                 ;302
000186  d3f3              BCC      |L1.368|
                  |L1.392|
;;;331    			}
;;;332    		}
;;;333    
;;;334    	// no matching Receiver Address found 
;;;335    	return (uint8 *) 0;
000188  2000              MOVS     r0,#0
                  |L1.394|
;;;336    }
00018a  bc70              POP      {r4-r6}
00018c  4770              BX       lr
                  |L1.398|
00018e  1880              ADDS     r0,r0,r2              ;318
000190  6060              STR      r0,[r4,#4]            ;319  ; CpacMarkTheSpot
000192  7065              STRB     r5,[r4,#1]            ;319
000194  e7f9              B        |L1.394|
;;;337    
                          ENDP

                  CpacDeleteMessageFromQueue PROC
;;;353    *****************************************************************************/
;;;354    void CpacDeleteMessageFromQueue (uint8 * queue )
000196  b510              PUSH     {r4,lr}
;;;355    {
000198  0004              MOVS     r4,r0
;;;356    	uint8 * endofqueue;
;;;357    	uint8 * endofrecord;
;;;358    	uint32 count;
;;;359    
;;;360    	// Get a pointer to the end of the queue
;;;361    	endofqueue = CpacSearchForEndOfQueue (queue);
00019a  f7fffffe          BL       CpacSearchForEndOfQueue
;;;362    
;;;363    	// Set the count between the current point and the end of the queue
;;;364    	count = endofqueue - queue;
00019e  1b02              SUBS     r2,r0,r4
;;;365    
;;;366    	// Set the address for the next record
;;;367    	endofrecord = queue + queue [1];
0001a0  7860              LDRB     r0,[r4,#1]
0001a2  1901              ADDS     r1,r0,r4
;;;368    
;;;369    	// Move all the other messages up, thereby deleting the current message
;;;370    	memcpy (queue, endofrecord, count); 
0001a4  0020              MOVS     r0,r4
0001a6  f7fffffe          BL       __aeabi_memcpy
;;;371    }
0001aa  e75f              B        |L1.108|
;;;372    
                          ENDP

                  CpacTransmitCommand PROC
;;;390    char bReportedScDown=FALSE;
;;;391    void CpacTransmitCommand (uint8 * queue)
0001ac  b570              PUSH     {r4-r6,lr}
;;;392    {
;;;393    	// Copy the packet into the transmit buffer
;;;394    	memcpy (CpacData, queue, queue [TK_COUNT]);
0001ae  7842              LDRB     r2,[r0,#1]
0001b0  0001              MOVS     r1,r0
0001b2  485f              LDR      r0,|L1.816|
0001b4  381e              SUBS     r0,r0,#0x1e
0001b6  f7fffffe          BL       __aeabi_memcpy
;;;395    	
;;;396    	// Increment the count to include the checksum byte
;;;397    	CpacData [TK_COUNT]++; 
0001ba  4d5d              LDR      r5,|L1.816|
0001bc  3d1e              SUBS     r5,r5,#0x1e
0001be  7868              LDRB     r0,[r5,#1]  ; CpacData
0001c0  1c40              ADDS     r0,r0,#1
0001c2  7068              STRB     r0,[r5,#1]
;;;398    
;;;399    	// Calculate the checksum
;;;400    	SB_SetChecksum (CpacData);
0001c4  0028              MOVS     r0,r5
0001c6  f7fffffe          BL       SB_SetChecksum
;;;401    
;;;402    
;;;403    	if( (CpacData[0] == 0xFF) && ((CpacData[2] == SB_CPAC_SMARTCARE_DOWN) ||
0001ca  7828              LDRB     r0,[r5,#0]  ; CpacData
0001cc  28ff              CMP      r0,#0xff
0001ce  d127              BNE      |L1.544|
0001d0  78a8              LDRB     r0,[r5,#2]  ; CpacData
;;;404    									(CpacData[2] == SB_CPAC_SMARTCARE_UP)))
;;;405    	{
;;;406    		if ((CpacData[2] == SB_CPAC_SMARTCARE_DOWN) && (!bReportedScDown))
;;;407    			{
;;;408    			if (FlashRamData.cDebugMessageMode>0)
0001d2  4c6a              LDR      r4,|L1.892|
0001d4  4e68              LDR      r6,|L1.888|
0001d6  2840              CMP      r0,#0x40              ;403
0001d8  d002              BEQ      |L1.480|
                  |L1.474|
0001da  2841              CMP      r0,#0x41              ;404
0001dc  d011              BEQ      |L1.514|
0001de  e01f              B        |L1.544|
                  |L1.480|
0001e0  7830              LDRB     r0,[r6,#0]            ;406  ; bReportedScDown
0001e2  2800              CMP      r0,#0                 ;406
0001e4  d11c              BNE      |L1.544|
0001e6  7a60              LDRB     r0,[r4,#9]
0001e8  2800              CMP      r0,#0
0001ea  d006              BEQ      |L1.506|
;;;409    				{			
;;;410    				sprintf (sString, "To CAWM: Sending SmartCare is down"); 
0001ec  486d              LDR      r0,|L1.932|
0001ee  a164              ADR      r1,|L1.896|
0001f0  f7fffffe          BL       __2sprintf
;;;411    				SendDebugMessage (sString);
0001f4  486b              LDR      r0,|L1.932|
0001f6  f7fffffe          BL       SendDebugMessage
                  |L1.506|
;;;412    				}
;;;413    			bReportedScDown=TRUE;
0001fa  2001              MOVS     r0,#1
0001fc  7030              STRB     r0,[r6,#0]
;;;414    			}
;;;415    		if ((CpacData[2] == SB_CPAC_SMARTCARE_UP) && (bReportedScDown))
0001fe  78a8              LDRB     r0,[r5,#2]  ; CpacData
000200  e7eb              B        |L1.474|
                  |L1.514|
000202  7830              LDRB     r0,[r6,#0]  ; bReportedScDown
000204  2800              CMP      r0,#0
000206  d00b              BEQ      |L1.544|
;;;416    			{
;;;417    			if (FlashRamData.cDebugMessageMode>0)
000208  7a60              LDRB     r0,[r4,#9]
00020a  2800              CMP      r0,#0
00020c  d006              BEQ      |L1.540|
;;;418    				{
;;;419    				sprintf (sString, "To CAWM: Sending SmartCare is up"); 
00020e  4865              LDR      r0,|L1.932|
000210  a165              ADR      r1,|L1.936|
000212  f7fffffe          BL       __2sprintf
;;;420    				SendDebugMessage (sString);
000216  4863              LDR      r0,|L1.932|
000218  f7fffffe          BL       SendDebugMessage
                  |L1.540|
;;;421    				}
;;;422    			bReportedScDown=FALSE;
00021c  2000              MOVS     r0,#0
00021e  7030              STRB     r0,[r6,#0]
                  |L1.544|
;;;423    			}
;;;424    		
;;;425    	}
;;;426       
;;;427    
;;;428    	// Transmit the command to the CPAC
;;;429    	SioSetMessage (UART_3, CpacData, CpacData [TK_COUNT] );
000220  4943              LDR      r1,|L1.816|
000222  786a              LDRB     r2,[r5,#1]  ; CpacData
000224  391e              SUBS     r1,r1,#0x1e
000226  2003              MOVS     r0,#3
000228  f7fffffe          BL       SioSetMessage
;;;430    	iCpacMessagesSent++;
00022c  4867              LDR      r0,|L1.972|
00022e  6801              LDR      r1,[r0,#0]  ; iCpacMessagesSent
000230  1c49              ADDS     r1,r1,#1
000232  6001              STR      r1,[r0,#0]  ; iCpacMessagesSent
;;;431    }
000234  e737              B        |L1.166|
;;;432    			
                          ENDP

                  CpacSaveNewTitle PROC
;;;452    *****************************************************************************/
;;;453    void CpacSaveNewTitle (uint8 * buffer )
000236  b5f8              PUSH     {r3-r7,lr}
;;;454    {
000238  0006              MOVS     r6,r0
;;;455    	uint8 Receiver, Count;
;;;456    	uint32 i;
;;;457    
;;;458    	// Set the CPAC Receiver Address
;;;459    	Receiver = HexAsciiBin (&buffer [RCVR_INDEX]);
00023a  1d00              ADDS     r0,r0,#4
00023c  f7fffffe          BL       HexAsciiBin
000240  0005              MOVS     r5,r0
;;;460    
;;;461    	// Align the Receiver with the title data, overwriting the comma in the process
;;;462    	buffer [COMMA2_INDEX] = Receiver;
000242  71b0              STRB     r0,[r6,#6]
;;;463    
;;;464    	// Get the packet count
;;;465    	Count = strlen ((const char *) buffer [COMMA2_INDEX]);
000244  f7fffffe          BL       strlen
000248  0600              LSLS     r0,r0,#24
00024a  0e00              LSRS     r0,r0,#24
;;;466    
;;;467    	// Search for this receiver or end of record
;;;468    	for (i = 0;  i < CPAC_TITLE_NUM_RECORDS;  i++ )
;;;469    		{
;;;470    		if ((CpacTitle [i].Receiver == Receiver)
00024c  4f38              LDR      r7,|L1.816|
00024e  2400              MOVS     r4,#0                 ;468
000250  9000              STR      r0,[sp,#0]
                  |L1.594|
000252  0120              LSLS     r0,r4,#4
000254  5c38              LDRB     r0,[r7,r0]
000256  42a8              CMP      r0,r5
000258  d007              BEQ      |L1.618|
;;;471    		 || (CpacTitle [i].Receiver == 0))
00025a  2800              CMP      r0,#0
00025c  d005              BEQ      |L1.618|
00025e  1c64              ADDS     r4,r4,#1              ;468
000260  2c30              CMP      r4,#0x30              ;468
000262  d3f6              BCC      |L1.594|
                  |L1.612|
;;;472    			{
;;;473    				sprintf (sString, "From SC: Saving cpac data"); 
;;;474    				SendDebugMessage (sString);
;;;475    	
;;;476    				// Copy the new title, along with the Receiver Number, into the Title Database
;;;477    			memcpy (&CpacTitle [i], &buffer [COMMA2_INDEX], Count);
;;;478    			// Set Flag/Counter to write the database to Flash
;;;479    			CpacWriteTitleDatabase = CPAC_START_WRITE;
;;;480    			break;
;;;481    			}
;;;482    		}
;;;483    }
000264  bcf8              POP      {r3-r7}
000266  bc08              POP      {r3}
000268  4718              BX       r3
                  |L1.618|
00026a  484e              LDR      r0,|L1.932|
00026c  a158              ADR      r1,|L1.976|
00026e  f7fffffe          BL       __2sprintf
000272  484c              LDR      r0,|L1.932|
000274  f7fffffe          BL       SendDebugMessage
000278  0120              LSLS     r0,r4,#4              ;477
00027a  9a00              LDR      r2,[sp,#0]            ;477
00027c  19c0              ADDS     r0,r0,r7              ;477
00027e  1db1              ADDS     r1,r6,#6              ;477
000280  f7fffffe          BL       __aeabi_memcpy
000284  493c              LDR      r1,|L1.888|
000286  2003              MOVS     r0,#3                 ;479
000288  7088              STRB     r0,[r1,#2]            ;479
00028a  e7eb              B        |L1.612|
;;;484    	
                          ENDP

                  CpacConfigureFlashWrite PROC
;;;539    *****************************************************************************/
;;;540    uint8 * CpacConfigureFlashWrite ()
00028c  483a              LDR      r0,|L1.888|
;;;541    {
00028e  b510              PUSH     {r4,lr}
;;;542    	uint8 * ToFlash;
;;;543    	uint8 * FromRam;
;;;544    	uint8 x;
;;;545    
;;;546    	// We need to write one of three possible 1/4k blocks, based on the value of CpacWriteTitleDatabase
;;;547    	x = CpacWriteTitleDatabase-1;
000290  7880              LDRB     r0,[r0,#2]  ; CpacWriteTitleDatabase
000292  1e40              SUBS     r0,r0,#1
000294  0600              LSLS     r0,r0,#24
;;;548    	ToFlash = (uint8 *) CPAC_TITLE_SPACE + (256 * x);
000296  0c02              LSRS     r2,r0,#16
000298  207f              MOVS     r0,#0x7f
00029a  0300              LSLS     r0,r0,#12
00029c  1814              ADDS     r4,r2,r0
;;;549    	FromRam = (uint8 *) CpacTitle + (256 * x); 
00029e  4824              LDR      r0,|L1.816|
;;;550    	Flash_WriteBlock (FromRam, ToFlash);
0002a0  0021              MOVS     r1,r4
0002a2  1810              ADDS     r0,r2,r0              ;549
0002a4  f7fffffe          BL       Flash_WriteBlock
;;;551    	return (ToFlash);
0002a8  0020              MOVS     r0,r4
;;;552    }
0002aa  e6df              B        |L1.108|
;;;553    
                          ENDP

                  CpacReadTitleDatabase PROC
;;;569    *****************************************************************************/
;;;570    void CpacReadTitleDatabase ()
0002ac  b570              PUSH     {r4-r6,lr}
;;;571    {
;;;572    	uint8 * FromFlash;
;;;573    	uint8 * ToRam;
;;;574    	uint8 x;
;;;575    
;;;576    	// We need to read all three of the 1/4k blocks
;;;577    	for (x = CPAC_START_WRITE;  x > 0;   x--)
;;;578    		{
;;;579    		FromFlash = (uint8 *) CPAC_TITLE_SPACE + (256 * (x-1));
0002ae  4d4f              LDR      r5,|L1.1004|
;;;580    		ToRam = (uint8 *) CpacTitle + (256 * (x-1)); 
0002b0  4e1f              LDR      r6,|L1.816|
0002b2  2403              MOVS     r4,#3                 ;577
                  |L1.692|
0002b4  0221              LSLS     r1,r4,#8              ;579
0002b6  1948              ADDS     r0,r1,r5              ;579
0002b8  1989              ADDS     r1,r1,r6
0002ba  39ff              SUBS     r1,r1,#0xff
0002bc  3901              SUBS     r1,#1
;;;581    		Flash_ReadBlock (FromFlash, ToRam);
0002be  f7fffffe          BL       Flash_ReadBlock
0002c2  1e64              SUBS     r4,r4,#1              ;577
0002c4  0624              LSLS     r4,r4,#24             ;577
0002c6  0e24              LSRS     r4,r4,#24             ;577
0002c8  d1f4              BNE      |L1.692|
;;;582    		}
;;;583    }
0002ca  e6ec              B        |L1.166|
;;;584    
                          ENDP

                  CpacInitializeFlashDatabase PROC
;;;600    *****************************************************************************/
;;;601    void CpacInitializeFlashDatabase ()
0002cc  b570              PUSH     {r4-r6,lr}
;;;602    {
;;;603    	uint32 i;
;;;604    
;;;605    	// Clear out every record in the title database
;;;606    	for (i = 0;  i < CPAC_TITLE_NUM_RECORDS;  i++)
;;;607    		{
;;;608    		memset ((void *) &CpacTitle [i], (int) 0, (size_t) CPAC_TITLE_RECORD_SIZE);
0002ce  4d18              LDR      r5,|L1.816|
0002d0  2400              MOVS     r4,#0                 ;606
                  |L1.722|
0002d2  0120              LSLS     r0,r4,#4
0002d4  1940              ADDS     r0,r0,r5
0002d6  2110              MOVS     r1,#0x10
0002d8  f7fffffe          BL       __aeabi_memclr
0002dc  1c64              ADDS     r4,r4,#1              ;606
0002de  2c30              CMP      r4,#0x30              ;606
0002e0  d3f7              BCC      |L1.722|
;;;609    		}
;;;610    
;;;611    	// Set Flag/Counter to write the database to Flash
;;;612    	CpacWriteTitleDatabase = CPAC_START_WRITE;
0002e2  4925              LDR      r1,|L1.888|
0002e4  2003              MOVS     r0,#3
0002e6  7088              STRB     r0,[r1,#2]
;;;613    }
0002e8  e6dd              B        |L1.166|
;;;614    
                          ENDP

                  CpacSetRfidNumber PROC
;;;629    *****************************************************************************/
;;;630    void CpacSetRfidNumber ( )
0002ea  b570              PUSH     {r4-r6,lr}
;;;631    {
;;;632    //	uint16 decimal;
;;;633    
;;;634    /********
;;;635    	// If this is a WatchMate, the one-byte TAG ID must be converted from binary to decimal:
;;;636    	if ((aucSBBuffer [OLD_F123] == 0) && (aucSBBuffer [OLD_RFID_3] == 0))
;;;637    		{
;;;638    		// The top 3 digits are padded to zeroes.
;;;639    	   	CpacRfidString [ 0 ] = '0';
;;;640    	   	CpacRfidString [ 1 ] = '0';
;;;641    	   	CpacRfidString [ 2 ] = '0';
;;;642    		// Convert the bottom 2 hex digits to 3 decimal Ascii digits
;;;643    		decimal = BinBcd16 (aucSBBuffer [OLD_RFID_2]);
;;;644    	   	CpacRfidString [ 3 ] = BinHexAscii ((decimal >> 8));
;;;645    	   	CpacRfidString [ 4 ] = BinHexAscii ( decimal >> 4 );
;;;646    	   	CpacRfidString [ 5 ] = BinHexAscii ( decimal );
;;;647    		}
;;;648    	else
;;;649    		{
;;;650    ************/
;;;651    		// Convert the top 2 digits to Ascii
;;;652    	   	CpacRfidString [ 0 ] = BinHexAscii ( aucSBBuffer [OLD_F123] >> 4 ); //7
0002ec  4d0f              LDR      r5,|L1.812|
0002ee  79e8              LDRB     r0,[r5,#7]  ; aucSBBuffer
0002f0  0900              LSRS     r0,r0,#4
0002f2  f7fffffe          BL       BinHexAscii
0002f6  4c1d              LDR      r4,|L1.876|
0002f8  7020              STRB     r0,[r4,#0]
;;;653    	   	CpacRfidString [ 1 ] = BinHexAscii ( aucSBBuffer [OLD_F123] );
0002fa  79e8              LDRB     r0,[r5,#7]  ; aucSBBuffer
0002fc  f7fffffe          BL       BinHexAscii
000300  7060              STRB     r0,[r4,#1]
;;;654    		// Convert the middle 2 digits to Ascii
;;;655    	   	CpacRfidString [ 2 ] = BinHexAscii ( aucSBBuffer [OLD_RFID_3] >> 4 );   //5
000302  7968              LDRB     r0,[r5,#5]  ; aucSBBuffer
000304  0900              LSRS     r0,r0,#4
000306  f7fffffe          BL       BinHexAscii
00030a  70a0              STRB     r0,[r4,#2]
;;;656    	   	CpacRfidString [ 3 ] = BinHexAscii ( aucSBBuffer [OLD_RFID_3] );
00030c  7968              LDRB     r0,[r5,#5]  ; aucSBBuffer
00030e  f7fffffe          BL       BinHexAscii
000312  70e0              STRB     r0,[r4,#3]
;;;657    		// Convert the bottom 2 digits to Ascii
;;;658    	   	CpacRfidString [ 4 ] = BinHexAscii ( aucSBBuffer [OLD_RFID_2] >> 4 );  //4
000314  7928              LDRB     r0,[r5,#4]  ; aucSBBuffer
000316  0900              LSRS     r0,r0,#4
000318  f7fffffe          BL       BinHexAscii
00031c  7120              STRB     r0,[r4,#4]
;;;659    	   	CpacRfidString [ 5 ] = BinHexAscii ( aucSBBuffer [OLD_RFID_2] );
00031e  7928              LDRB     r0,[r5,#4]  ; aucSBBuffer
000320  f7fffffe          BL       BinHexAscii
000324  7160              STRB     r0,[r4,#5]
;;;660    //		}
;;;661    
;;;662    	// Attach a terminating NULL character
;;;663       	CpacRfidString [ 6 ] = 0;
000326  2000              MOVS     r0,#0
000328  71a0              STRB     r0,[r4,#6]
;;;664    		
;;;665    		//CpacRfidString [ 0 ] ='F'; //5-11-2017. Somehow the first character is being dropped but it is always an 'F'
;;;666    }	
00032a  e6bc              B        |L1.166|
;;;667    
                          ENDP

                  |L1.812|
                          DCD      aucSBBuffer
                  |L1.816|
                          DCD      ||.bss||+0x212
                  |L1.820|
                          DCD      ucReceiverNumberResponding
                  |L1.824|
000338  204c4f49          DCB      " LOITER ",0
00033c  54455220
000340  00      
000341  00                DCB      0
000342  00                DCB      0
000343  00                DCB      0
                  |L1.836|
000344  50415449          DCB      "PATIENT ",0
000348  454e5420
00034c  00      
00034d  00                DCB      0
00034e  00                DCB      0
00034f  00                DCB      0
                  |L1.848|
000350  444f4f52          DCB      "DOOR OPEN ",0
000354  204f5045
000358  4e2000  
00035b  00                DCB      0
                  |L1.860|
00035c  444f4f52          DCB      "DOOR LOCKED ",0
000360  204c4f43
000364  4b454420
000368  00      
000369  00                DCB      0
00036a  00                DCB      0
00036b  00                DCB      0
                  |L1.876|
                          DCD      ||.bss||+0x512
                  |L1.880|
                          DCD      WANDER
                  |L1.884|
                          DCD      ||.bss||
                  |L1.888|
                          DCD      ||.data||
                  |L1.892|
                          DCD      FlashRamData+0xc0
                  |L1.896|
000380  546f2043          DCB      "To CAWM: Sending SmartCare is down",0
000384  41574d3a
000388  2053656e
00038c  64696e67
000390  20536d61
000394  72744361
000398  72652069
00039c  7320646f
0003a0  776e00  
0003a3  00                DCB      0
                  |L1.932|
                          DCD      sString
                  |L1.936|
0003a8  546f2043          DCB      "To CAWM: Sending SmartCare is up",0
0003ac  41574d3a
0003b0  2053656e
0003b4  64696e67
0003b8  20536d61
0003bc  72744361
0003c0  72652069
0003c4  73207570
0003c8  00      
0003c9  00                DCB      0
0003ca  00                DCB      0
0003cb  00                DCB      0
                  |L1.972|
                          DCD      iCpacMessagesSent
                  |L1.976|
0003d0  46726f6d          DCB      "From SC: Saving cpac data",0
0003d4  2053433a
0003d8  20536176
0003dc  696e6720
0003e0  63706163
0003e4  20646174
0003e8  6100    
0003ea  00                DCB      0
0003eb  00                DCB      0
                  |L1.1004|
                          DCD      0x0007ef00

                          AREA ||.bss||, DATA, NOINIT, ALIGN=3

                  CpacOutQueue
                          %        500
                  CpacData
                          %        30
                  CpacTitle
                          %        768
                  CpacRfidString
                          %        10

                          AREA ||area_number.4||, DATA, NOINIT, ALIGN=0

                          EXPORTAS ||area_number.4||, ||.bss||
                  CpacStatus
                          %        9

                          AREA ||.data||, DATA, ALIGN=2

                  bReportedScDown
000000  00                DCB      0x00
                  CpacMessageSent
000001  00                DCB      0x00
                  CpacWriteTitleDatabase
000002  0000              DCB      0x00,0x00
                  CpacMarkTheSpot
                          DCD      0x00000000

                          AREA ||area_number.7||, DATA, ALIGN=0

                          EXPORTAS ||area_number.7||, ||.data||
                  CpacDoorPropState
000000  00                DCB      0x00

                          AREA ||area_number.8||, DATA, ALIGN=0

                          EXPORTAS ||area_number.8||, ||.data||
                  CpacDoorLockState
000000  00                DCB      0x00

                          AREA ||area_number.9||, DATA, ALIGN=0

                          EXPORTAS ||area_number.9||, ||.data||
                  CpacNoTagId
000000  00                DCB      0x00

                          AREA ||area_number.10||, DATA, ALIGN=0

                          EXPORTAS ||area_number.10||, ||.data||
                  CpacAlarmType
000000  00                DCB      0x00
